INDEX VERSION 1.127+D:\Programowanie\Java\violetumleditor-master\.metadata\.plugins\org.eclipse.jdt.core
1003053016.index
3609228615.index
3385757197.index
2689061861.index
4052256345.index
1974218842.index
322690031.index
2276162037.index
1773248355.index
2295547494.index
1989535742.index
71698844.index
2921179834.index
4131038344.index
2410559617.index
1545346825.index
9231804.index
2748912193.index
2961185077.index
986950370.index
1984797805.index
3849926968.index
2788149061.index
2081980450.index
1642629014.index
3425653186.index
2306981935.index
229612465.index
2142348700.index
2698978038.index
3168013242.index
3078003503.index
4133831525.index
3094672917.index
1256513231.index
3113632119.index
2368313133.index
3604818565.index
2629094316.index
1837437109.index
2558323977.index
4135478709.index
3750591952.index
2279014071.index
1062690568.index
2280525903.index
2129423106.index
225127061.index
321887764.index
1999927016.index
2798810878.index
3150109421.index
3620173291.index
1925641214.index
3150670995.index
4247270281.index
4282262597.index
970739344.index
2643673911.index
4083911327.index
1403849761.index
4097853004.index
2745073868.index
431327959.index
869306505.index
